<svg xmlns="http://www.w3.org/2000/svg" width="50" height="50" viewBox="0 0 50 50">
  <g id="A1" transform="translate(5079 -13767)">
    <rect id="Rectangle_3662" data-name="Rectangle 3662" width="50" height="50" transform="translate(-5079 13767)" fill="none"/>
    <g id="Group_5639" data-name="Group 5639" transform="translate(290.814 2994.332)">
      <g id="Group_5620" data-name="Group 5620" transform="translate(-5364.814 10774.668)">
        <path id="Path_10104" data-name="Path 10104" d="M35.434,10.557,24.877,0H1.5V43.737H35.434Z" transform="translate(-1.5)" fill="#f2f5f9"/>
        <g id="Group_5619" data-name="Group 5619" transform="translate(6.787 9.803)">
          <path id="Path_10105" data-name="Path 10105" d="M11.254,22.508H30.106a.754.754,0,0,0,0-1.508H11.254a.754.754,0,1,0,0,1.508Z" transform="translate(-10.5 -14.967)" fill="#d3dce8"/>
          <path id="Path_10106" data-name="Path 10106" d="M11.254,14.508h7.541a.754.754,0,1,0,0-1.508H11.254a.754.754,0,1,0,0,1.508Z" transform="translate(-10.5 -13)" fill="#d3dce8"/>
          <path id="Path_10107" data-name="Path 10107" d="M30.106,29H11.254a.754.754,0,1,0,0,1.508H30.106a.754.754,0,0,0,0-1.508Z" transform="translate(-10.5 -16.935)" fill="#d3dce8"/>
          <path id="Path_10108" data-name="Path 10108" d="M30.106,37H11.254a.754.754,0,0,0,0,1.508H30.106a.754.754,0,0,0,0-1.508Z" transform="translate(-10.5 -18.902)" fill="#d3dce8"/>
          <path id="Path_10109" data-name="Path 10109" d="M30.106,45H11.254a.754.754,0,1,0,0,1.508H30.106a.754.754,0,1,0,0-1.508Z" transform="translate(-10.5 -20.869)" fill="#d3dce8"/>
        </g>
        <path id="Path_10110" data-name="Path 10110" d="M32.5,0V10.557H43.057Z" transform="translate(-9.123)" fill="#d3dce8"/>
      </g>
      <path id="Path_10126" data-name="Path 10126" d="M411.781,3.506l-2.337,2.337-2.887-.62-.082-.012-.538-2.875L408.275,0Zm0,0" transform="translate(-5736.87 10793.323)" fill="#d6facf"/>
      <path id="Path_10127" data-name="Path 10127" d="M422.4,33.573l-2.337,2.337-2.887-.62,3.471-3.471Zm0,0" transform="translate(-5747.492 10763.256)" fill="#74e4a2" opacity="0.45"/>
      <path id="Path_10128" data-name="Path 10128" d="M369.355,45.932l-2.338,2.337-2.828-.491-.035-.152-.643-2.863,2.337-2.337Zm0,0" transform="translate(-5696.781 10753.235)" fill="#61729b"/>
      <path id="Path_10129" data-name="Path 10129" d="M380.377,76l-2.338,2.337-2.828-.491-.035-.152,3.448-3.448Zm0,0" transform="translate(-5707.803 10723.168)" fill="#47568c"/>
      <path id="Path_10130" data-name="Path 10130" d="M73.646,88.358,56.541,105.463l-2.922-.585-.585-2.922L70.14,84.851Zm0,0" transform="translate(-5403.41 10713.146)" fill="#594da1"/>
      <path id="Path_10131" data-name="Path 10131" d="M81.918,116.672l1.753,1.753L66.566,135.531l-2.922-.585Zm0,0" transform="translate(-5413.435 10683.079)" fill="#917ac5"/>
      <path id="Path_10132" data-name="Path 10132" d="M6.432,398.835,0,401.756l2.922-6.428Zm0,0" transform="translate(-5353.301 10419.775)" fill="#ffcebf"/>
      <path id="Path_10133" data-name="Path 10133" d="M4.679,427.148,6.432,428.9,0,431.823Zm0,0" transform="translate(-5353.301 10389.708)" fill="#ffb99c"/>
    </g>
  </g>
</svg>
