<svg xmlns="http://www.w3.org/2000/svg" width="50" height="50" viewBox="0 0 50 50">
  <g id="A2" transform="translate(5009 -13767)">
    <rect id="Rectangle_3662" data-name="Rectangle 3662" width="50" height="50" transform="translate(-5009 13767)" fill="none"/>
    <g id="Group_5638" data-name="Group 5638" transform="translate(1886 5244)">
      <g id="Group_5620" data-name="Group 5620" transform="translate(-6891 8524)">
        <path id="Path_10104" data-name="Path 10104" d="M37.847,11.308,26.539,0H1.5V46.847H37.847Z" transform="translate(-1.5)" fill="#f2f5f9"/>
        <g id="Group_5619" data-name="Group 5619" transform="translate(7.269 10.5)">
          <path id="Path_10105" data-name="Path 10105" d="M11.308,22.615H31.5A.808.808,0,0,0,31.5,21H11.308a.808.808,0,1,0,0,1.615Z" transform="translate(-10.5 -14.538)" fill="#d3dce8"/>
          <path id="Path_10106" data-name="Path 10106" d="M11.308,14.615h8.077a.808.808,0,0,0,0-1.615H11.308a.808.808,0,1,0,0,1.615Z" transform="translate(-10.5 -13)" fill="#d3dce8"/>
          <path id="Path_10107" data-name="Path 10107" d="M31.5,29H11.308a.808.808,0,1,0,0,1.615H31.5A.808.808,0,0,0,31.5,29Z" transform="translate(-10.5 -16.077)" fill="#d3dce8"/>
          <path id="Path_10108" data-name="Path 10108" d="M31.5,37H11.308a.808.808,0,0,0,0,1.615H31.5A.808.808,0,0,0,31.5,37Z" transform="translate(-10.5 -17.615)" fill="#d3dce8"/>
          <path id="Path_10109" data-name="Path 10109" d="M31.5,45H11.308a.808.808,0,1,0,0,1.615H31.5A.808.808,0,1,0,31.5,45Z" transform="translate(-10.5 -19.153)" fill="#d3dce8"/>
        </g>
        <path id="Path_10110" data-name="Path 10110" d="M32.5,0V11.308H43.808Z" transform="translate(-7.461)" fill="#d3dce8"/>
      </g>
      <circle id="Ellipse_1082" data-name="Ellipse 1082" cx="9.693" cy="9.693" r="9.693" transform="translate(-6868.383 8552.479)" fill="#3ecf8e"/>
      <g id="Group_5621" data-name="Group 5621" transform="translate(-6863.537 8557.326)">
        <path id="Path_10112" data-name="Path 10112" d="M0,0H11.137V2.425H0Z" transform="translate(0 7.875) rotate(-45)" fill="#fff"/>
        <ellipse id="Ellipse_1083" data-name="Ellipse 1083" cx="1.662" cy="1.662" rx="1.662" ry="1.662" transform="translate(0.006 0.3)" fill="#fff"/>
        <ellipse id="Ellipse_1084" data-name="Ellipse 1084" cx="1.662" cy="1.662" rx="1.662" ry="1.662" transform="translate(6.071 6.369)" fill="#fff"/>
      </g>
    </g>
  </g>
</svg>
